Pro_grthn_Est	Pro_lsthn_Est
Rpl39l	Frat2
Rnf113a	LOC100910418
Olr287	LOC100911837
Ripk4	Cebpb
Tmem27	Myh9l1
Gnb2l1	Pak2
Kbtbd6	Mast4
F5	LOC100911615
LOC100910990	Trpm1
Gabre	Faim
Sostdc1	Spag4
A2m	x
Kl	x
Asb4	x
Tgfbr1	x
Slco1a2	x
Calcr	x
Oxt	x
Kcnj13	x
Dcun1d2	x
Tmem72	x
Zbtb33	x
LOC103690173	x
LOC100909655	x
Pon1	x
Ttr	x