Term	Overlap	P-value	Adjusted P-value	Old P-value	Old Adjusted P-value	Odds Ratio	Combined Score	Genes
Immature Neurons	24/136	3.73857160406798E-7	5.9443288504680886E-5	0	0	3.7379625945085557	55.319573854014834	RAB3C;CSRNP3;CUL5;CTNND2;ELAVL4;CELF5;ANK2;MMD2;PROX1;DCLK1;CREB1;ABI2;DPYSL5;FUT9;KIF5A;BCL2;NF1;RGS8;LRRC4C;ERC2;PAK3;MAPK4;SOX5;CLASP2
Interneurons	38/305	2.211488863801679E-6	1.7581336467223347E-4	0	0	2.4945863766247034	32.484116075909654	RAB3C;CSRNP3;GDA;PDE1A;CTNND2;CAMK2A;LYPD1;ELAVL4;CELF5;ABAT;RORB;MAP2;KIF5A;PSD3;IDS;SRGAP3;RGS8;ERC2;FAM81A;MAPK4;CALN1;LYNX1;ACBD5;GAD1;LMO3;MMD2;HSPA12A;HPCAL4;TMEM196;FBXO11;ATG12;DHRS3;PDP1;NBEA;RAB15;CAMK4;PTPN4;FRYL
Astrocytes	21/154	1.1101727064936755E-4	0.0038921257640943474	0	0	2.743567251461988	24.982442656604352	ALDH1L1;CAMK2A;FAM107A;DIO2;SLC1A2;MMD2;HSPA2;SORBS1;FGF1;S100B;RLBP1;SYNE1;SRR;SNPH;HMG20A;ACSBG1;ALDOC;FGFR3;TEAD1;MAPK4;RAPGEF4
Parietal Cells	17/111	1.1730143445469768E-4	0.0038921257640943474	0	0	3.1373655491874066	28.395553829148806	MAOB;NEBL;ABAT;SORBS2;ANK3;SORBS1;NDRG2;PPP1R9A;PAIP2B;MYO5B;TRIM2;TPPP;RAPGEF5;FGFR3;ARFGEF3;SHANK2;MAPK4
Chromaffin Cells	18/122	1.2239389195265244E-4	0.0038921257640943474	0	0	3.003675687193693	27.057909842746298	RAB3C;ARNT2;SHC3;CSRNP3;ELAVL4;ANK2;CDC42BPA;TMEM196;DCLK1;MAPK10;MAP2;TRIM2;DPYSL3;NCS1;PSD3;ERC2;MAPK4;RAPGEF4
Photoreceptor Cells	20/149	1.9892599040149275E-4	0.005158633541797935	0	0	2.692023607196896	22.942980389341262	RAB3C;NAPB;AMER3;SGIP1;MAGI2;SLC1A2;SEBOX;MMD2;LIN7A;PROX1;HSPA12A;TMEM196;CPLX3;SYNE1;FAM135B;ARHGEF9;ATCAY;TNR;RGS8;PAK3
Gamma (PP) Cells	18/128	2.2710965278355686E-4	0.005158633541797935	0	0	2.838932258876857	23.81886196789661	EGR3;CSRNP3;MAOB;LMO3;ANK2;SORBS2;PROX1;PPP1R9A;TMEM196;PBX1;MAPK10;PLCXD3;MAP2;NFIB;TRIM2;LONRF2;MAPK4;RAPGEF4
Enteric Neurons	20/166	8.233683717987356E-4	0.016364446389499868	0	0	2.3764145324597976	16.8775499557418	SHC3;CSRNP3;ELAVL4;ANK2;AKAP6;NMNAT2;ARHGAP26;TMEM196;DCLK1;TTBK2;GOLGA7B;MAPK10;PIK3CA;LIX1;MAP2;TRIM2;PLCE1;STXBP5;LRRC4C;MAPK4
Trigeminal Neurons	17/144	0.002436460085768827	0.039166660938617245	0	0	2.318069558648342	13.948309190818225	RAB3C;CSRNP3;MAGI2;ELAVL4;ANK2;MMD2;KCNAB2;TMEM196;DCLK1;ADD2;MAPK10;DLG2;MAP2;RUFY3;KIF5A;ERC2;MAPK4
Bergmann Glia	16/132	0.002463312008718066	0.039166660938617245	0	0	2.3877959637692676	14.34169590071959	RFTN2;ALDH1L1;MAGI2;CAMK2A;FAM107A;SLC1A2;MMD2;AKAP6;S100B;MAPK10;DLG2;RUFY3;TNR;ACSBG1;LRRC4C;RAPGEF4
Cajal-Retzius Cells	19/174	0.003427425855721142	0.049541882823605596	0	0	2.123522747600024	12.052999975716006	CSRNP3;HOMER2;ANK2;PNMA2;LZTFL1;DCLK1;RIMS4;MAPK8;NBEA;ABI2;DPYSL5;FUT9;MAP2;KIF5A;SRGAP3;FSD1;ERC2;MAPK4;TRIM44
Tanycytes	14/121	0.006734303496433793	0.08922952132774775	0	0	2.261974567746262	11.311096318140228	CSRNP3;DIO2;PRICKLE2;ANK2;LDB2;PRDX6;DCLK1;PBX1;MAPK10;MAP2;TRIM2;DPYSL3;MAPK4;WASF3
Neuroendocrine Cells	14/123	0.007761228383081719	0.09083327644905399	0	0	2.22023412641476	10.787262076398319	RAB3C;CSRNP3;ABHD2;CAMK2A;MRTFB;ELAVL4;MMD2;TMEM196;ATXN1;PDE10A;CCDC85C;LRRC4C;SFXN5;CLASP2
Enteric Glia Cells	13/111	0.007997898555262615	0.09083327644905399	0	0	2.2922887905162064	11.06849167598947	MAOB;FAM107A;ANK2;SORBS1;NDRG2;S100B;DCLK1;DHRS3;TRIM2;ALDH1A1;FXYD6;MAPK4;RAPGEF4
Beta Cells	15/145	0.013916550459954788	0.14546859723209332	0	0	1.9941563960900976	8.524373417028647	RAB3C;AMER3;CSRNP3;CTNND2;ELAVL4;PROX1;TMEM196;MAPK10;RIMS1;STXBP5;LRRC4C;PAK3;EZH1;MAPK4;RAPGEF4
Glutaminergic Neurons	12/107	0.014638349407003102	0.14546859723209332	0	0	2.1811222270552415	9.213301349570505	ATCAY;DLG2;CSRNP3;FUT9;MAGI2;CAMK2A;SLC1A2;TNR;CELF5;MMD2;RGS8;TMEM196
M?ller Cells	15/147	0.01561761184679502	0.14607060492002402	0	0	1.9637326301690943	8.16786317032754	SPARC;FAM107A;PRICKLE2;ANK2;CROT;LDB2;PRDX6;DCLK1;RLBP1;MAPK10;PPP1R3C;TRIM2;DPYSL3;GLUL;GSTM5
Neurons	25/289	0.017302822059375028	0.15284159485781276	0	0	1.6400353441477977	6.653435879344985	RERE;RAB3C;CSRNP3;DGKB;PDE1A;KMT2C;RASGRF1;ELAVL4;CELF5;ABAT;PPP1R9A;NAPG;SYNE1;CAMK2N1;KIF5A;ERC2;SGIP1;GAD1;MMD2;PROX1;TMEM196;NBEA;NMT1;COPG1;SCRG1
Oligodendrocyte Progenitor Cells	13/125	0.020266501686381253	0.1627767908449086	0	0	2.00425912552521	7.814177256997471	ARNT2;SHC3;CTNND2;KCNIP3;ANK2;MMD2;DCLK1;TMEM100;MAP2;TNR;ALDOC;LRRC4C;MAPK4
Endothelial Cells (Blood Brain Barrier)	12/113	0.021681562006224602	0.1627767908449086	0	0	2.050895998690778	7.857583599897158	ARNT2;SHC3;FMNL2;DDAH1;CAMK2N1;TRIM2;KCNIP3;NCS1;PSD3;HSPA12A;FGFR3;TEAD1
Peri-islet Schwann Cells	12/114	0.023064060606944405	0.1627767908449086	0	0	2.030681142980608	7.6546113271123195	NCKAP1;ARNT2;CSRNP3;TRIM2;DPYSL3;PRICKLE2;ANK2;HSPA12A;ALDH7A1;TEAD1;DCLK1;PBX1
Satellite Glial Cells	12/114	0.023064060606944405	0.1627767908449086	0	0	2.030681142980608	7.6546113271123195	LYNX1;MAOB;LRRK2;FAM107A;SLC1A2;MMD2;FXYD6;NDRG2;S100B;GLUL;MTURN;GAS7
Purkinje Neurons	15/155	0.024065158837253253	0.1627767908449086	0	0	1.8507300710339385	6.897652792997098	RAB3C;CTNND2;PDE1A;GAD1;CAMK2A;ELAVL4;CELF5;ABAT;MMD2;TMEM196;PPM1E;KIF5A;PKP4;RGS8;SHANK2
Purkinje Fiber Cells	11/102	0.02459450770693306	0.1627767908449086	0	0	2.0857747756830327	7.728279704201771	RAB3C;ATCAY;CSRNP3;ABI2;MAGI2;ANK2;FMN2;PNMA2;PAK3;DCLK1;MAPK4
Podocytes	17/184	0.025593835038507637	0.1627767908449086	0	0	1.7590869920675254	6.447764101816724	NCKAP1;NEBL;MAGI2;PRICKLE2;ZFP91;RASAL2;IQGAP2;GNG12;HSPA12A;CDC42BPA;TANC1;EPB41L5;DDAH1;NFIB;PLCE1;PLS3;TEAD1
Dopaminergic Neurons	12/119	0.03096470465410577	0.1893610784616468	0	0	1.9352745809840117	6.724899735472535	NR4A2;RIMS4;CSRNP3;DPYSL5;CTNND2;KIF5A;CELF5;ERC2;MYT1;LONRF2;TMEM196;MAPK4
Spermatozoa	11/108	0.03551107811738151	0.20912079335791334	0	0	1.95613354771588	6.5293988482584275	ALDH1L1;NWD1;ABHD2;LRRK2;ALDH1A1;HSPA2;CFLAR;SOD2;MGLL;CPEB4;GAS7
Alpha Cells	13/136	0.03710983360483798	0.21032477796505306	0	0	1.8239478718316595	6.007853173285526	RAB3C;CSRNP3;SORBS2;LDB2;PROX1;TMEM196;MAPK10;DDAH1;CAMK2N1;TRIM2;ALDH1A1;PLCE1;RAPGEF4
Distal Tubule Cells	13/137	0.03902385531689329	0.21032477796505306	0	0	1.8091422556925996	5.868101518432898	ALDH1L1;THRB;GDA;NEBL;ACOT11;TSC22D2;KCNJ16;KLHL3;TFCP2L1;FGD4;MYO5B;SLC16A7;CPEB4
Crypt Cells	11/110	0.03980647584419596	0.21032477796505306	0	0	1.9164118246687054	6.1779859940018325	ARHGAP32;MAOB;NEBL;MYO5B;TRIM2;FXYD6;ANK3;NDRG2;PPP1R9A;PBX1;AMOT
Schwann Cells	13/138	0.041006717716456885	0.21032477796505306	0	0	1.7945735294117646	5.731902629903341	ZCCHC24;ARNT2;CAMK2A;FAM107A;ANK2;SORBS1;FGF1;HSPA12A;S100B;SEPTIN9;DCLK1;ALDOC;MAPK4
Retinal Progenitor Cells	11/112	0.04444982208252432	0.22086005347254273	0	0	1.8782632391679535	5.847774099676316	RIMS4;CSRNP3;DPYSL5;CTNND2;CELF5;ANK2;MMD2;RGS8;LRRC4C;ERC2;MAPK4
Radial Glia Cells	11/114	0.04945136997284055	0.23826569168732267	0	0	1.8415961521332502	5.537247806647485	MAPK10;ARNT2;SHC3;CSRNP3;MAP2;TRIM2;DPYSL3;ANK2;LRRC4C;DCLK1;MAPK4
Delta Cells	12/131	0.05748343809155652	0.2688196075458084	0	0	1.739009653448156	4.967060940530686	MAPK10;RAB3C;CSRNP3;MAOB;TRIM2;ELAVL4;SORBS2;PROX1;SORBS1;TMEM196;MAPK4;RAPGEF4
Oligodendrocytes	15/178	0.06686703536679715	0.3037673892377356	0	0	1.5876351557468733	4.2946311732988445	CAMK2A;FAM107A;SLC1A2;KLHL2;MMD2;SORBS1;NDRG2;ST18;PEX5L;DLG2;MPPED1;TNR;TPPP;MAPK4;RAPGEF4
Neural Stem/Precursor Cells	12/152	0.1332718910681736	0.5886175188844335	0	0	1.4765053128689491	2.9756955702962453	ARNT2;RIMS4;CSRNP3;INAFM2;DPYSL5;MAP2;CTNND2;ALDOC;RGS8;S100B;DCLK1;MAPK4
Oxyphil Cells	8/94	0.14590723201630598	0.6270067537998014	0	0	1.6011404497968043	3.0818499300104056	PREX2;DTNA;PYGM;SORBS1;SRL;ADRA1A;PTGR2;SPTB
Glomus Cells	10/127	0.16213078648471616	0.6783893434492071	0	0	1.4714015997242396	2.6769973630417634	ARNT2;PPP1R3C;EPAS1;CBS;DPYSL3;PRICKLE2;ANK2;HSPA12A;TEAD1;DCLK1
His Bundle Cells	8/98	0.1717038519120773	0.7000233962569304	0	0	1.5296533495984548	2.6952248458784878	PYGO1;NCKAP1;PDE10A;ABI2;PAPPA;DPYSL3;ANK2;ALDH7A1
Taste Receptor Cells	9/115	0.18267776936630567	0.7261441332310651	0	0	1.4612015343147418	2.4840886381515284	UNC13C;NAPB;FAM135B;AMER3;GNG7;SLC1A2;TNR;PROX1;ST18
Mesangial Cells	11/148	0.19279633425823897	0.7476735889526828	0	0	1.382053170829706	2.275026623469326	NR4A2;NCOA2;MEF2C;SH3BGRL;SPARC;ROCK1;DYRK1A;SMARCA5;LDB2;FGF1;MIB1
Anterior Pituitary Gland Cells	10/133	0.1975920993431388	0.7480272332275968	0	0	1.3991787947210361	2.2688390427563245	MAPK10;RAB3C;CSRNP3;SGIP1;MAGI2;FMN2;PRL;PAK3;TMEM196;CPEB4
GABAergic Neurons	8/113	0.283348267598467	0.9999932333978818	0	0	1.3100858275606675	1.652121083895271	MAP2;CTNND2;GAD1;CAMK2A;ANK2;MMD2;TMEM196;MAPK4
Neuroblasts	10/146	0.2840577359423698	0.9999932333978818	0	0	1.264557610395212	1.5915440921568964	RIMS4;CSRNP3;DPYSL5;KIF5A;ERC2;MYT1;SIRT1;PPM1E;PBX1;MAPK4
Choroid Plexus Cells	8/117	0.3159639343835216	0.9999932333978818	0	0	1.2617406850936317	1.4536857671934238	NCKAP1;DDAH1;TRIM2;CHMP1A;PRICKLE2;FGFR3;TEAD1;SHANK2
Cholinergic Neurons	7/102	0.3301527300474217	0.9999932333978818	0	0	1.2665063023188685	1.4035421743773933	RIMS4;DPYSL5;KIF5A;OGDHL;RGS8;MYT1;PPM1E
Reticulocytes	7/103	0.3391636323664398	0.9999932333978818	0	0	1.2532468769043266	1.3551015049131128	ILF3;XPO1;CNOT1;POLR2B;TSR1;NUP153;EIF3A
Pinealocytes	7/107	0.3754672469134065	0.9999932333978818	0	0	1.2028610603290677	1.1783034932422363	UNC13C;AMER3;ATCAY;SV2C;PDE10A;TNR;KSR2
Luteal Cells	8/125	0.38296466441128235	0.9999932333978818	0	0	1.1749673524604907	1.1277484155262716	B4GALT2;PPP1R3C;DDAH1;PLS3;GNG12;TSPAN12;BCAT1;TEAD1
Mast Cells	14/235	0.4196907497878323	0.9999932333978818	0	0	1.088520441082809	0.9450938843319812	SPARC;MAOB;SLA;RAB27B;LDB2;CDC42BPA;PAPSS2;SPRED1;ALDH1A1;IDS;KCTD12;RGL1;RIN2;STK32B
Pyramidal Cells	8/130	0.4252699884944359	0.9999932333978818	0	0	1.1265129812667796	0.9632035712504264	NR4A2;RAB3C;STX1B;MAP2;CAMK2A;ELAVL4;MMD2;TMEM196
Cardiac Stem And Precursor Cells	7/113	0.43013956157778	0.9999932333978818	0	0	1.1344124038494705	0.9570419890148999	NCKAP1;TANC1;DDAH1;PLS3;GNG12;TSPAN12;TEAD1
Pancreatic Progenitor Cells	7/114	0.43921444960724687	0.9999932333978818	0	0	1.1237506193510909	0.9245854759004348	DDAH1;EPAS1;TSPAN12;FGFR3;TEAD1;ARFGEF3;MAPK4
Melanocytes	8/133	0.4505595808591864	0.9999932333978818	0	0	1.0993010064043915	0.8764341681931925	TANC1;SLK;EPAS1;PRICKLE2;RASAL2;GNG12;TEAD1;SASH1
Olfactory Epithelial Cells	13/226	0.47603380708201726	0.9999932333978818	0	0	1.0482169980668323	0.7780562617575204	HOMER2;ELMOD3;HSPA12A;DUSP8;GOLGA7B;GNAL;KLHL5;MORN4;MAP2;TRIM2;NCS1;FAM81A;ARFGEF3
Kidney Progenitor Cells	6/105	0.5224093134176214	0.9999932333978818	0	0	1.0405424104054242	0.675628217142814	NCKAP1;DDAH1;KCNIP3;GNG12;HSPA12A;TEAD1
Mesothelial Cells	8/144	0.5409954291511778	0.9999932333978818	0	0	1.009794951832517	0.6203619233472313	AR;PPP1R3C;SDC4;EPAS1;CAV2;PRICKLE2;FGF1;GNG12
Ionocytes	6/107	0.5410575290759821	0.9999932333978818	0	0	1.0198291061982911	0.6264092926910013	NWD1;NEBL;MYO5B;TFCP2L1;ARFGEF3;SHANK2
Loop Of Henle Cells	8/147	0.5646777419257655	0.9999932333978818	0	0	0.9878428455771522	0.5645522641195256	RGS5;MAOB;EPAS1;PRICKLE2;SORBS2;LDB2;RIN2;SASH1
Granulosa Cells	6/112	0.586203295490837	0.9999932333978818	0	0	0.971465494959938	0.5188486742611499	B4GALT2;NCKAP1;DDAH1;PLS3;GNG12;TEAD1
Osteocytes	5/98	0.6327576021528791	0.9999932333978818	0	0	0.9225139314025587	0.4222049815689093	DPYSL3;PXDN;RAB13;PLS3;GNG12
Satellite Cells	7/139	0.6492707667704187	0.9999932333978818	0	0	0.9097072184366517	0.3929074993307117	NCKAP1;PEG3;DDAH1;PLS3;GNG12;HSPA12A;TEAD1
Retinal Ganglion Cells	8/164	0.6870625519903482	0.9999932333978818	0	0	0.8793956881788538	0.3300635308563139	KIF5A;CELF5;MMD2;RGS8;ERC2;TMEM196;CDK14;MAPK4
Leydig Cells	7/145	0.6922311982281308	0.9999932333978818	0	0	0.8698765333969213	0.3199712762078088	PPP1R3C;MAOB;EPAS1;ALDH1A1;PRICKLE2;ACSBG1;SASH1
Parathyroid Chief Cells	5/106	0.7003163279707598	0.9999932333978818	0	0	0.8490821709908217	0.30246272463572016	ARNT2;CTNND2;GLIS3;OGDHL;ANK2
Epiblast Cells	5/109	0.7233057118449691	0.9999932333978818	0	0	0.8244578186412128	0.26706110411389944	RIMS4;PHC1;DPYSL5;SOX11;ADAMTS20
Embryonic Stem Cells	8/176	0.7590921013300941	0.9999932333978818	0	0	0.8160589029756459	0.22493208082563662	NCKAP1;KCNIP3;PLS3;GNG12;ALDH7A1;SMAD5;TEAD1;PUM2
Sertoli Cells	7/158	0.7730201391292623	0.9999932333978818	0	0	0.7944356332554451	0.20452759481520547	AR;DIAPH2;LYNX1;PPP1R3C;MAOB;SDC4;EPAS1
Glycinergic Neurons	4/100	0.807532400405564	0.9999932333978818	0	0	0.7141826192646612	0.15267231855297797	RIMS4;GAD1;KIF5A;MMD2
Adrenergic Neurons	4/106	0.841891991859018	0.9999932333978818	0	0	0.6719573882424438	0.11564625107136184	IQSEC3;OGDHL;FXYD6;DUSP8
Cardiomyocytes	7/174	0.8495743245763901	0.9999932333978818	0	0	0.7177090061193883	0.1170008142006251	PPP1R3C;PDE1A;PYGM;SORBS2;SORBS1;ZFPM2;SRL
Pulmonary Alveolar Type I Cells	5/131	0.853793088524569	0.9999932333978818	0	0	0.6797083188506546	0.10743904677245582	SDC4;EPAS1;AKAP5;GNG12;TEAD1
Enterochromaffin Cells	4/109	0.8570447480427138	0.9999932333978818	0	0	0.6526544254894301	0.1006818308852003	SGIP1;SORBS2;PROX1;FGF1
Motor Neurons	4/111	0.866444903467827	0.9999932333978818	0	0	0.6403871220576083	0.09180382104130043	RIMS4;FGF1;HSPA12A;TEAD1
Hepatoblasts	4/114	0.8795477928169166	0.9999932333978818	0	0	0.6228225739620452	0.07993764269930924	MYO5B;HMGCS2;PROX1;SMAD5
Epsilon Cells	5/138	0.8826870650262636	0.9999932333978818	0	0	0.6436940892376928	0.08032307142897606	MAOB;SORBS2;HMGCS2;PROX1;SORBS1
Meningeal Cells	4/115	0.883660568205274	0.9999932333978818	0	0	0.617178710159567	0.07633405936238521	TMEM100;PPP1R3C;DPYSL3;ANK2
Myoepithelial Cells	4/115	0.883660568205274	0.9999932333978818	0	0	0.617178710159567	0.07633405936238521	SMIM3;SDC4;CAV2;GNG12
Enteroendocrine Cells	5/139	0.8863885046944427	0.9999932333978818	0	0	0.6388563569016232	0.07704603294701895	RAB3C;CSRNP3;CTNND2;ELAVL4;TMEM196
Myocytes	6/163	0.8904537957647742	0.9999932333978818	0	0	0.6541139516621586	0.07589295854633515	MEF2A;TRIO;PYGM;ARHGAP26;SRL;CLOCK
Intercalated Cells	4/118	0.8952731013927657	0.9999932333978818	0	0	0.6008412096787091	0.06646893967340481	AGBL4;ALDH1L1;NWD1;KCNJ16
Transient Cells	4/120	0.9024374021343723	0.9999932333978818	0	0	0.5904190110960927	0.06061002548382531	SDC4;EPAS1;MYO5B;ACO2
Pulmonary Vascular Smooth Muscle Cells	3/99	0.9151083528878711	0.9999932333978818	0	0	0.5351491347905283	0.04747457937473068	ZCCHC24;SPARC;LDB2
Myofibroblasts	3/100	0.9184354326150221	0.9999932333978818	0	0	0.5296039659737479	0.04506065084684233	SPARC;PPP1R3C;LDB2
Plasmacytoid Dendritic Cells	5/150	0.9208960360559257	0.9999932333978818	0	0	0.5900453058142462	0.04862453067343651	MAP3K2;TYROBP;DOCK8;SLA;TCF4
Hepatic Stellate Cells	4/132	0.9369793379329497	0.9999932333978818	0	0	0.534725387420237	0.03480744018833753	RGS5;SPARC;PPP1R3C;LDB2
Adipocytes	7/210	0.9473931872612947	0.9999932333978818	0	0	0.5892958456786233	0.031846183647006095	SULT1A1;AR;ACVR1C;MAOB;EPAS1;PXMP2;ACADSB
Basal Cells	4/141	0.9551408903345184	0.9999932333978818	0	0	0.49935790377206585	0.022918740200024594	SDC4;EPAS1;RAB13;BCL2
Adipocyte Progenitor Cells	3/115	0.9559198348957947	0.9999932333978818	0	0	0.45830893832943015	0.020661127982558834	PLS3;GNG12;TEAD1
Osteoclasts	4/144	0.9600308496613832	0.9999932333978818	0	0	0.48857924208881365	0.01992907887033856	TYROBP;LRRK2;KCTD12;RIN2
Hepatocytes	7/221	0.9629441747507305	0.9999932333978818	0	0	0.5586760409369714	0.021095517363946405	SULT1A1;AR;WTAP;ACADM;PROX1;HMGCS2;GLUL
Chondrocytes	4/146	0.9630114913923266	0.9999932333978818	0	0	0.4816464878606186	0.018153224505068507	SPARC;TCF4;SOX6;SCRG1
Endothelial Cells	8/246	0.9641698378815595	0.9999932333978818	0	0	0.5738888419045569	0.020939952484781314	TMEM100;RGS5;EHD3;SPARC;EPAS1;PROX1;LDB2;MGLL
Microfold Cells	3/126	0.9723859854254072	0.9999932333978818	0	0	0.41707761339908483	0.011679194598097482	B4GALT1;NFIB;FOSL2
Myoblasts	3/126	0.9723859854254072	0.9999932333978818	0	0	0.41707761339908483	0.011679194598097482	PPP1R3C;GNG12;TEAD1
Eosinophils	3/127	0.9735514736222892	0.9999932333978818	0	0	0.41369205006169574	0.01108884196692884	TYROBP;SLA;IKZF2
Fibroblasts	7/232	0.9742073765807611	0.9999932333978818	0	0	0.5310501726589478	0.013876917573618005	NR4A2;GREM1;SPARC;TCF4;PBX1;FOSL2;GSTM5
Airway Smooth Muscle Cells	2/99	0.9753561607378899	0.9999932333978818	0	0	0.3527480464902489	0.008801974422421222	TGFB1I1;PXDN
Trophoblast Cells	3/130	0.9767741786698717	0.9999932333978818	0	0	0.4038552557979433	0.00949051416535299	B4GALT1;SIRT1;FOSL2
Microglia	4/158	0.9769689697221794	0.9999932333978818	0	0	0.44383146479773644	0.010341445433771884	CYFIP1;TYROBP;SLA;FOS
Endothelial Cells (Aorta)	5/185	0.9773320512558767	0.9999932333978818	0	0	0.4744272100567721	0.010878054421324937	SULT1A1;EHD3;EPAS1;TMTC1;GNG12
Ductal Cells	3/132	0.9787112149511272	0.9999932333978818	0	0	0.39755157368577115	0.008554776982652643	SDC4;MYO5B;HMGCS2
T Memory Cells	3/133	0.9796210262189775	0.9999932333978818	0	0	0.3944724674232871	0.008121986942275328	BCL2;SLA;KPNA4
Cholangiocytes	3/134	0.9804936766277446	0.9999932333978818	0	0	0.3914403704167188	0.007711016149427866	MYO5B;KLHDC7A;HMGCS2
Ependymal Cells	3/136	0.9821331262399426	0.9999932333978818	0	0	0.38551296273470564	0.006950187055600437	NWD1;HSPA2;S100B
Osteoclast Precursor Cells	2/107	0.9832866306027628	0.9999932333978818	0	0	0.3257333506651068	0.005490109809828747	TYROBP;CFLAR
Undefined Placental Cells	2/108	0.9840835301699403	0.9999932333978818	0	0	0.32264322626057995	0.005176648323757148	PRMT5;LAS1L
Luminal Epithelial Cells	3/140	0.985025391265099	0.9999932333978818	0	0	0.37417733636472417	0.005645535344141122	AR;BTG1;MYO5B
Follicular Cells	2/110	0.9855680069995053	0.9999932333978818	0	0	0.3166346510295555	0.004602964518107928	KCNIP3;HMGCS2
Pancreatic Stellate Cells	2/111	0.9862588202925873	0.9999932333978818	0	0	0.3137130502291491	0.004340679200214445	RGS5;SPARC
Megakaryocytes	3/143	0.9868941531773152	0.9999932333978818	0	0	0.36610070257611244	0.004829778486490446	TYROBP;MRTFB;PROX1
Pluripotent Stem Cells	2/112	0.986917394250831	0.9999932333978818	0	0	0.3108445694432956	0.0040934924956303785	SET;GMPS
Clara Cells	2/113	0.9875451804405393	0.9999932333978818	0	0	0.3080277729959259	0.0038605215996703407	ALDH1A1;TFCP2L1
T Regulatory Cells	2/117	0.9897753654022015	0.9999932333978818	0	0	0.2972504648494679	0.0030549218682370304	SLA;IKZF2
Hematopoietic Stem Cells	4/178	0.9898490090302969	0.9999932333978818	0	0	0.3923972380263833	0.004003575502989111	TYROBP;EGR3;APC;ALDH1A1
Neutrophils	3/151	0.9908456345539939	0.9999932333978818	0	0	0.3461637867375572	0.0031835036201975984	TYROBP;DOCK8;LYST
Osteoblasts	3/154	0.9920077229102136	0.9999932333978818	0	0	0.3392320775883907	0.0027221293159189267	SPARC;MAGED1;PLCD4
Pericytes	3/155	0.9923623813886288	0.9999932333978818	0	0	0.3369823123382226	0.0025836213450925686	RGS5;SPARC;LDB2
Alveolar Macrophages	2/123	0.9924077880892184	0.9999932333978818	0	0	0.28242053256529226	0.0021523775628016937	TYROBP;GDA
Stromal Cells	2/124	0.9927766363879276	0.9999932333978818	0	0	0.28009069347693133	0.002030539446703149	SPARC;LDB2
Mammary Epithelial Cells	2/134	0.9956221376892509	0.9999932333978818	0	0	0.2587338351669562	0.0011351877704041593	SDC4;MYO5B
Pulmonary Alveolar Type II Cells	2/135	0.9958370389408623	0.9999932333978818	0	0	0.25677478500619155	0.0010711746102492696	ALDH1A1;TFCP2L1
Dendritic Cells	4/199	0.9958467474013517	0.9999932333978818	0	0	0.3497463945959844	0.001455609976919385	TYROBP;SLA;S100B;MACROH2A1
Smooth Muscle Cells	3/169	0.9959816972542292	0.9999932333978818	0	0	0.30833168740535916	0.0012414660331295903	RGS5;PPP1R3C;LDB2
Principal Cells	2/136	0.9960415657921502	0.9999932333978818	0	0	0.2548449744000652	0.001010788957630717	MYO5B;PHACTR1
Tuft Cells	2/136	0.9960415657921502	0.9999932333978818	0	0	0.2548449744000652	0.001010788957630717	TYROBP;DCLK1
Trophoblast Stem Cells	1/99	0.9963724035570752	0.9999932333978818	0	0	0.17440630797773654	6.338260313027318E-4	GNG12
T Cells Naive	1/102	0.9969413782004236	0.9999932333978818	0	0	0.1691989198919892	5.183085644746182E-4	SLA
Monocytes	3/176	0.9970980081417787	0.9999932333978818	0	0	0.2957452857007486	8.594981435878595E-4	AR;TYROBP;LYST
Juxtaglomerular Cells	1/103	0.9971104638948555	0.9999932333978818	0	0	0.1675311942959002	4.847881789256881E-4	TGFB1I1
Vascular Smooth Muscle Cells	1/103	0.9971104638948555	0.9999932333978818	0	0	0.1675311942959002	4.847881789256881E-4	SPARC
Decidual Cells	1/106	0.9975636676813951	0.9999932333978818	0	0	0.1627186147186147	3.9692033136655457E-4	PRL
Gastric Chief Cells	1/109	0.9979457700473467	0.9999932333978818	0	0	0.15817340067340066	3.252587299855839E-4	HMGCS2
Red Pulp Macrophages	1/110	0.9980593167413784	0.9999932333978818	0	0	0.15671392827356131	3.0442759139710627E-4	TYROBP
T Follicular Helper Cells	1/110	0.9980593167413784	0.9999932333978818	0	0	0.15671392827356131	3.0442759139710627E-4	SLA
Myeloid-derived Suppressor Cells	1/112	0.9982679167774163	0.9999932333978818	0	0	0.15387387387387388	2.667534416600024E-4	TYROBP
Erythroid-like And Erythroid Precursor Cells	2/153	0.9983291814728399	0.9999932333978818	0	0	0.2259489361189281	3.7783540382779393E-4	PAN3;THRB
Foveolar Cells	1/114	0.9984540777817035	0.9999932333978818	0	0	0.15113435237329043	2.3382273576620676E-4	HMGCS2
Natural Killer T Cells	1/118	0.9987684700405629	0.9999932333978818	0	0	0.14593628593628594	1.7983566754892295E-4	SLA
Thymocytes	1/118	0.9987684700405629	0.9999932333978818	0	0	0.14593628593628594	1.7983566754892295E-4	SLA
Peritubular Myoid Cells	1/120	0.9989007755335665	0.9999932333978818	0	0	0.14346829640947287	1.5779060111234956E-4	GSTM3
Proximal Tubule Cells	2/164	0.9990487178042741	0.9999932333978818	0	0	0.21048315528145678	2.003241756442319E-4	FUT9;HMGCS2
Langerhans Cells	1/123	0.9990730220149004	0.9999932333978818	0	0	0.13991803278688525	1.297610882440992E-4	TYROBP
Acinar Cells	1/124	0.9991242025546836	0.9999932333978818	0	0	0.1387730968218773	1.2159037572073325E-4	HMGCS2
Erythroblasts	1/124	0.9991242025546836	0.9999932333978818	0	0	0.1387730968218773	1.2159037572073325E-4	KMT5A
Macrophages	3/204	0.9992289209683273	0.9999932333978818	0	0	0.2541663268357665	1.96057922974847E-4	TYROBP;SELENOP;SLA
Basophils	2/169	0.9992643378586579	0.9999932333978818	0	0	0.20412677829055265	1.5022360651008367E-4	TYROBP;JAZF1
Kupffer Cells	1/137	0.9995809906648583	0.9999932333978818	0	0	0.1254211229946524	5.256363445468546E-5	TYROBP
Gamma Delta T Cells	1/146	0.9997479663243068	0.9999932333978818	0	0	0.11757993730407523	2.963783881014915E-5	S100B
B Cells Memory	1/147	0.999761767243143	0.9999932333978818	0	0	0.11676836861768368	2.782136448126051E-5	GNG7
B Cells Naive	1/151	0.999809731974724	0.9999932333978818	0	0	0.11363030303030303	2.162227044767577E-5	DOCK8
NK Cells	1/157	0.9998639691425595	0.9999932333978818	0	0	0.10922494172494172	1.485897313907727E-5	SLA
Enterocytes	2/203	0.9998723384520514	0.9999932333978818	0	0	0.16929003752846322	2.1613207860306676E-5	GSTM3;HMGCS2
T Cells	1/165	0.9999126476821396	0.9999932333978818	0	0	0.10385254988913525	9.072157191276E-6	BCL2
Plasma Cells	1/166	0.9999173132574746	0.9999932333978818	0	0	0.10321763085399449	8.53508254045833E-6	GNG7
Platelets	2/214	0.999926968308082	0.9999932333978818	0	0	0.16041169502291963	1.1715565299938205E-5	SPARC;TYROBP
Epithelial Cells	2/218	0.9999402113756839	0.9999932333978818	0	0	0.1574074074074074	9.411453697791752E-6	MYO5B;THRSP
B Cells	1/182	0.9999648394776903	0.9999932333978818	0	0	0.09401305876443998	3.305606363851495E-6	EDEM1
Germ Cells	1/222	0.9999932333978818	0.9999932333978818	0	0	0.07683257918552036	5.198972520328842E-7	CAMK4
